{
  "$schema": "https://themost-framework.github.io/themost/models/2018/2/schema.json",
  "@id": "https://universis.io/schemas/CourseClassSection",
  "name": "CourseClassSection",
  "title": "Τμήμα τάξης",
  "description": "Τμήμα, μέρος τάξης",
  "hidden": false,
  "sealed": false,
  "version": "0.4",
  "source": "CourseClassSectionBase",
  "view": "CourseClassSectionData",
  "fields": [
    {
      "name": "id",
      "title": "Κωδικός",
      "description": "Κωδικός τμήματος τάξης μαθήματος",
      "nullable": false,
      "primary": true,
      "type": "Counter",
      "size": 36,
      "value":"javascript:return this.newGuid();"
    },
    {
      "name": "courseClass",
      "title": "Τάξη",
      "description": "Η τάξη του μαθήματος που αναφέρεται το τμήμα",
      "type": "CourseClass",
      "nullable": false,
      "editable": false
    },
    {
      "name": "section",
      "title": "Αριθμός τμήματος",
      "description": "Ο αριθμός του τμήματος",
      "type": "Integer",
      "nullable": false
    },
    {
      "name": "sectionIndex",
      "title": "Αύξων αριθμός τμήματος",
      "description": "Αύξων αριθμός τμήματος",
      "type": "Integer",
      "nullable": false
    },
    {
      "name": "name",
      "title": "Τίτλος",
      "description": "Ο τίτλος του τμήματος της τάξης",
      "type": "Text"
    },
    {
      "name": "maxNumberOfStudents",
      "title": "Μέγιστος αριθμός φοιτητών",
      "description": "Μέγιστος αριθμός φοιτητών που δέχεται το τμήμα τάξης.",
      "type": "Integer",
      "nullable": true,
      "size": 4
    },
    {
      "name": "instructor1",
      "title": "Διδάσκων 1",
      "description": "Ο διδάσκοντας του τμήματος",
      "type": "Instructor"
    },
    {
      "name": "instructor2",
      "title": "Διδάσκων 2",
      "description": "Ο διδάσκοντας του τμήματος",
      "type": "Instructor"
    },
    {
      "name": "instructor3",
      "title": "Διδάσκων 3",
      "description": "Ο διδάσκοντας του τμήματος",
      "type": "Instructor"
    },
    {
      "name": "instructors",
      "title": "Διδάσκοντες",
      "description": "Το σύνολο των διδασκόντων τμήματος τάξης.",
      "type": "CourseClassSectionInstructor",
      "many": true,
      "mapping": {
        "parentModel": "CourseClassSection",
        "childModel": "CourseClassSectionInstructor",
        "parentField": "id",
        "childField": "section",
        "cascade": "none",
        "associationType": "association"
      }
    },
    {
      "name": "notes",
      "title": "Σημειώσεις",
      "description": "Σημειώσεις",
      "type": "Text",
      "many": false
    },
    {
      "name": "active",
      "title": "Ενεργό",
      "description": "Αν είναι ενεργό το τμήμα",
      "type": "Boolean",
      "calculation": "javascript:return this.convertStrictBoolean(this.target,'active');"

    },
    {
      "name": "sectionCategory",
      "title": "Κατηγορία τμήματος τάξης",
      "description": "Κατηγορία τμήματος τάξης",
      "type": "Integer"
    },
    {
      "name": "sectionFilter",
      "title": "Συνθήκη τμήματος τάξης",
      "description": "Συνθήκη τμήματος τάξης",
      "type": "Text"
    },
    {
      "name": "dateModified",
      "title": "Ημερομηνία τελευταίας τροποποίησης",
      "description": "Ημερομηνία τελευταίας τροποποίησης",
      "type": "DateTime",
      "nullable": false,
      "value": "javascript:return new Date();",
      "calculation": "javascript:return this.now();"
    }
  ],
  "eventListeners": [
    {
      "type": "./listeners/course-class-section-listener"
    }
  ],
  "privileges": [
    {
      "mask": 1,
      "type": "global",
      "account": "*"
    },
    {
      "mask": 15,
      "type": "global"
    },
    {
      "mask": 15,
      "type": "global",
      "account": "Administrators"
    },
    {
      "mask": 15,
      "type": "self",
      "account": "Registrar",
      "filter": "courseClass/course/department eq departments()"
    }
  ]
}
