{
  "$schema": "https://themost-framework.github.io/themost/models/2018/2/schema.json",
  "@id": "https://universis.io/schemas/CourseCategoryRule",
  "name": "CourseCategoryRule",
  "type": "memory",
  "title": "Course category rules",
  "hidden": true,
  "sealed": false,
  "version": "0.1",
  "inherits": "Rule",
  "classPath": "./rules/coursecategory-rule",
  "fields": [
    {
      "name": "id",
      "title": "Id",
      "description": "Id",
      "type": "Integer",
      "nullable": false,
      "primary": true
    }
  ],
  "privileges": [
    {
      "mask": 1,
      "type": "global",
      "account": "*"
    },
    {
      "mask": 15,
      "type": "global"
    }
  ]
}
