{
  "$schema": "https://themost-framework.github.io/themost/models/2018/2/schema.json",
  "@id": "https://universis.io/schemas/GradeStatus",
  "name": "GradeStatus",
  "title": "Grade status",
  "description": "Κατάσταση βαθμού",
  "hidden": false,
  "sealed": false,
  "abstract": false,
  "caching": "always",
  "implements": "Enumeration",
  "category": "lookup",
  "version": "1.0",
  "fields": [
    {
      "name": "id",
      "title": "Id",
      "type": "Counter",
      "nullable": false,
      "primary": true
    }
  ],
  "privileges": [
    {
      "mask": 1,
      "type": "global",
      "account": "*"
    },
    {
      "mask": 15,
      "type": "global"
    },
    {
      "mask": 15,
      "type": "global",
      "account": "Administrators"
    }
  ],
  "constraints": [
    {
      "type": "unique",
      "description": "Alternate name must be unique across different records",
      "fields": [
        "alternateName"
      ]
    }
  ],
  "seed": [
    {
      "alternateName": "normal",
      "name": "Κανονική",
      "identifier": 0,
      "description": "Κανονική"
    },
    {
      "alternateName": "remark",
      "name": "Αναβαθμολόγηση",
      "identifier": 1,
      "description": "Αναβαθμολόγηση"
    },
    {
      "alternateName": "pending",
      "name": "Σε εκκρεμότητα",
      "identifier": 4,
      "description": "Σε εκκρεμότητα"
    },
    {
      "alternateName": "failed",
      "name": "Ακυρώθηκε",
      "identifier": 5,
      "description": "Ακύρωση βαθμολογίας λόγω μη εγκυρότητας"
    }
  ],
  "eventListeners": [
    {
      "name": "Lookup Cache Listener",
      "type": "./listeners/lookup-cache-listener.js"
    }
  ]
}
