{
  "$schema": "https://themost-framework.github.io/themost/models/2018/2/schema.json",
  "@id": "https://universis.io/schemas/PercentileRankCalculationMethod",
  "name": "PercentileRankCalculationMethod",
  "title": "Τρόπος υπολογισμού ποσοστιαίας βαθμολογίας",
  "hidden": false,
  "sealed": false,
  "abstract": false,
  "caching": "always",
  "implements": "Enumeration",
  "category": "lookup",
  "version": "1.0",
  "fields": [
    {
      "name": "id",
      "title": "Id",
      "type": "Counter",
      "nullable": false,
      "primary": true
    }
  ],
  "privileges": [
    {
      "mask": 1,
      "type": "global",
      "account": "*"
    },
    {
      "mask": 15,
      "type": "global"
    },
    {
      "mask": 15,
      "type": "global",
      "account": "Administrators"
    }
  ],
  "constraints": [
    {
      "type": "unique",
      "description": "Alternate name must be unique across different records",
      "fields": [
        "alternateName"
      ]
    },
    {
      "type": "unique",
      "description": "Name must be unique across different records",
      "fields": [
        "name"
      ]
    }
  ],
  "seed": [
    {
      "alternateName": "simple",
      "name": "Απλός",
      "description": "Απλός τρόπος υπολογισμού ποσοστιαίας βαθμολογίας, όπου όλοι οι βαθμοί έχουν τον ίδιο συντελεστή βαρύτητας μεταξύ τους",
      "identifier": 1
    },
    {
      "alternateName": "complex",
      "name": "Σύνθετος",
      "description": "Σύνθετος τρόπος υπολογισμού ποσοστιαίας βαθμολογίας, όπου οι βαθμοί που είναι ίσοι με τον βαθμό για τον οποίον υπολογίζεται η ποσοστιαία βαθμολογία έχουν συντελεστή βαρύτητας 0.5, ενώ οι χαμηλότεροι 1",
      "identifier": 2
    }
  ],
  "eventListeners": [
    {
      "name": "Lookup Cache Listener",
      "type": "./listeners/lookup-cache-listener.js"
    }
  ]
}

