{
  "$schema": "https://themost-framework.github.io/themost/models/2018/2/schema.json",
  "@id": "http://schema.org/RejectAction",
  "name": "RejectAction",
  "description": "<p>The act of rejecting to/adopting an object.</p>\n\n<p>Related actions:</p>\n\n<ul>\n<li><a class=\"localLink\" href=\"http://schema.org/AcceptAction\">AcceptAction</a>: The antonym of RejectAction.</li>\n</ul>\n",
  "title": "RejectAction",
  "abstract": false,
  "sealed": false,
  "inherits": "AllocateAction",
  "version": "1.6",
  "fields": [
    {
      "@id": "http://schema.org/initiator",
      "name": "initiator",
      "title": "Initial action",
      "description": "Indicates whether an action has been derived from another action made by a user.",
      "type": "Action"
    }
  ],
  "privileges": [
    {
      "mask": 15,
      "type": "global"
    },
    {
      "mask": 15,
      "type": "global",
      "account": "Administrators"
    },
    {
      "mask": 7,
      "type": "self",
      "account": "Registrar",
      "filter": "owner eq me()"
    }
  ]
}
