{
  "$schema": "https://themost-framework.github.io/themost/models/2018/2/schema.json",
  "@id": "https://universis.io/schemas/StudyProgramSemesterRule",
  "name": "StudyProgramSemesterRule",
  "title": "Study program semester rules for registration and required courses",
  "hidden": false,
  "version": "1.0",
  "fields": [
    {
      "@id": "https://themost.io/schemas/id",
      "name": "id",
      "title": "ID",
      "description": "The identifier of the item.",
      "type": "Counter",
      "primary": true,
      "nullable": false
    },
    {
      "name": "studyProgram",
      "title": "Program of study",
      "description": "A curriculum of two or more courses that is intended or understood to lead to a degree, diploma, or certificate.",
      "type": "StudyProgram",
      "editable": false,
      "nullable": false
    },
    {
      "name": "additionalType",
      "title": "The rule additional type",
      "description": "The rule additional type",
      "type": "Text",
      "editable": false,
      "nullable": false
    },
    {
      "name": "semester",
      "title": "Semester",
      "description": "Semester for applying rules",
      "type": "Semester"
    },
    {
      "name": "courseTypes",
      "title": "The courseType values to check",
      "description": "The values to check",
      "type": "CourseType",
      "many": true,
      "mapping": {
        "cascade": "delete",
        "associationType": "junction",
        "associationAdapter": "SemesterRuleCourseTypes",

        "privileges": [
          {
            "mask": 15,
            "type": "self",
            "account": "Registrar",
            "filter": "parentId/studyProgram/department eq departments()"
          },
          {
            "mask": 15,
            "type": "global",
            "account": "Administrators"
          }
        ]
      }
    },
    {
      "name": "courses",
      "title": "Courses",
      "description": "Number of courses",
      "type": "Integer",
      "many": false
    },
    {
      "name": "units",
      "title": "Units",
      "description": "Number of units",
      "type": "Integer",
      "many": false
    },
    {
      "name": "hours",
      "title": "Hours",
      "description": "Number of hours",
      "type": "Integer",
      "many": false
    },
    {
      "name": "ects",
      "title": "ECTS",
      "description": "Number of ects",
      "type": "Number",
      "many": false
    },
    {
      "name": "programSpecialty",
      "title": "The rule for specific program specialty",
      "description": "The rule program specialty",
      "type": "Integer"
    },
    {
      "@id": "https://themost.io/schemas/dateCreated",
      "name": "dateCreated",
      "title": "dateCreated",
      "description": "The date on which this item was created.",
      "type": "DateTime",
      "readonly": true,
      "value": "javascript:return new Date();"
    },
    {
      "@id": "https://themost.io/schemas/dateModified",
      "name": "dateModified",
      "title": "dateModified",
      "description": "The date on which this item was most recently modified.",
      "type": "DateTime",
      "readonly": true,
      "value": "javascript:return (new Date());",
      "calculation": "javascript:return (new Date());"
    },
    {
      "@id": "https://themost.io/schemas/createdBy",
      "name": "createdBy",
      "title": "createdBy",
      "description": "Created by user.",
      "type": "User",
      "readonly": true,
      "value": "javascript:return this.user();"
    },
    {
      "@id": "https://themost.io/schemas/modifiedBy",
      "name": "modifiedBy",
      "title": "modifiedBy",
      "description": "Last modified by user.",
      "type": "User",
      "readonly": true,
      "value": "javascript:return this.user();",
      "calculation": "javascript:return this.user();"
    }
  ],
  "privileges": [
    {
      "mask": 1,
      "type": "global",
      "account": "*"
    },
    {
      "mask": 15,
      "type": "global"
    },
    {
      "mask": 15,
      "type": "global",
      "account": "Administrators"
    },
    {
      "mask": 15,
      "type": "self",
      "account": "Registrar",
      "filter": "studyProgram/department eq departments()"
    }
  ]
}
